{
    "name": "CategoryItem",
    "fields": [
        {
            "fieldName": "name",
            "fieldType": "String",
            "fieldValidateRules": [
                "required"
            ]
        },
        {
            "fieldName": "description",
            "fieldType": "String"
        }
    ],
    "relationships": [
        {
            "relationshipType": "many-to-one",
            "otherEntityName": "category",
            "otherEntityRelationshipName": "categoryItem",
            "relationshipName": "category",
            "otherEntityField": "id"
        }
    ],
    "changelogDate": "20190517021539",
    "entityTableName": "category_item",
    "dto": "no",
    "pagination": "pagination",
    "service": "serviceClass",
    "jpaMetamodelFiltering": false,
    "fluentMethods": true,
    "clientRootFolder": "category",
    "applications": "*",
    "microserviceName": "Category"
}